  525  git push origin main
  526  vi csvread03.py 
  527  ls -lrt
  528  ps
  529  cd ..
  530  vi mygame01.py
  531  python3 mygame01.py 
  532  vi mygame01.py 
  533  python3 mygame01.py 
  534  ls -lrt
  535  vi mygame01.py 
  536  python3 mygame01.py 
  537  ls -lrt
  538  vi mygame01.py 
  539  python3 mygame01.py 
  540  git add .
  541  git commit -m "Python and JSON practice, modeling with lists (arrays) and dicts (objects)"
  542  git status
  543  git push origin main
  544  vi mygame01.py 
  545  ls -lrt
  546  cd csv01
  547  ls -lrt
  548  vi csvread01pandas.py 
  549  python3 csvread01pandas.py 
  550  git status
  551  git reset --hard
  552  cd ,,
  553  cd ..
  554  ls -lrt
  555  cd csv01/
  556  ls -lrt
  557  vi csvread01pandas.py 
  558  python3 csvread01pandas.py 
  559  vi csvread01pandas.py 
  560  python3 csvread01pandas.py 
  561  cd ..
  562  ls -lrt
  563  mkdir introapi
  564  ls -lrt
  565  cd introapi
  566  ls -lrt
  567  vi norad01.py
  568  python3 norad01.py 
  569  ls -lrt
  570  vi norad01.py 
  571  python3 norad01.py 
  572  vi norad01.py 
  573  python3 norad01.py 
  574  vi norad01.py 
  575  python3 norad01.py 
  576  pip install requests
  577  vi norad01requests.py
  578  python norad01requests.py 
  579  python3 norad01requests.py 
  580  vi norad01requests.py
  581  python3 norad01requests.py 
  582  vi norad01requests.py
  583  python3 norad01requests.py 
  584  vi norad01requests.py
  585  python3 norad01requests.py 
  586  vi norad01requests.py
  587  python3 norad01requests.py 
  588  ls -lrt
  589  vi satellites_names.txt 
  590  vi norad01requests.py
  591  python3 norad01requests.py 
  592  vi satellites_names.txt 
  593  vi sol3.py
  594  python3 sol3.py 
  595  ls -lrt
  596  vi norad.json 
  597  ls
  598  cd..
  599  cd /home/student
  600  ls
  601  cd mycode/
  602  ls
  603  ls -lrt
  604  cd pandas/
  605  ls -lrt
  606  git log -3
  607  cd ..
  608  ls -lrt
  609  cd introapi/
  610  sudo apt install tree -y
  611  cd ..
  612  mkdir spacex
  613  ls -lrt
  614  cd spacex/
  615  vim spacexapi01a.py
  616  pytho3 spacexapi01a.py 
  617  python3 spacexapi01a.py 
  618  vim spacexapi01b.py
  619  python3 spacexapi01b.py 
  620  vim spacexapi01b.py
  621  python3 spacexapi01b.py 
  622  vim spacexapi01b.py
  623  python3 spacexapi01b.py 
  624  git status
  625  git add .
  626  git commit -m "spacexapi"
  627  git push origin main
  628  vim spacexapi01b.py
  629  python3 spacexapi01b.py 
  630  vim spacexapi01b.py
  631  python3 spacexapi01b.py 
  632  q
  633  vim spacexapi01b.py
  634  python3 spacexapi01b.py 
  635  vim spacexapi01b.py
  636  python3 spacexapi01b.py 
  637  vim spacexapi01b.py
  638  python3 spacexapi01b.py 
  639  vim spacexapi01b.py
  640  python3 spacexapi01b.py 
  641  git add .
  642  git commit -m "add some colors"
  643  git push origin main
  644  vim spacexapi01b.py
  645  python3 spacexapi01b.py 
  646  vim spacexapi01b.py
  647  python3 spacexapi01b.py 
  648  vim spacexapi01b.py
  649  python3 spacexapi01b.py 
  650  vim spacexapi01b.py
  651  python3 spacexapi01b.py 
  652  vim spacexapi01b.py
  653  python3 spacexapi01b.py 
  654  vim spacexapi01b.py
  655  python3 spacexapi01b.py 
  656  git add .
  657  git commit -m "add red coloring for None core details"
  658  git push origin main
  659  python3 -m pip install dpkt
  660  sudo apt install tshark
  661  wget https://static.alta3.com/courses/sip/SIP_REGISTER_wp.pcapng
  662  mv SIP_REGISTER_wp.pcapng ..
  663  ls -lrt
  664  cd ..
  665  ls -lrt
  666  editcap -F libpcap -T ether SIP_REGISTER_wp.pcapng SIP_REGISTER_wp.pcap
  667  ls -lrt
  668  vim ~/mycode/decoding_traces01.py
  669  python3 decoding_traces01.py 
  670  ls -lrt
  671  python3 decoding_traces01.py 
  672  vim ~/mycode/decoding_traces01.py
  673  python3 decoding_traces01.py 
  674  vim ~/mycode/decoding_traces01.py
  675  python3 decoding_traces01.py 
  676  vim ~/mycode/decoding_traces01.py
  677  vim ~/mycode/decoding_traces02.py
  678  python3 decoding_traces02.py 
  679  git status
  680  git add .
  681  git commit -m "learning about packet captures"
  682  git push origin main
  683  python3 decoding_traces01.py 
  684  vim ~/mycode/decoding_traces02.py
  685  python3 decoding_traces02.py 
  686  vim ~/mycode/decoding_traces02.py
  687  python3 decoding_traces02.py 
  688  ls -lrt
  689  sudo apt install termshark -y
  690  sudo termshark -i lo
  691  wget https://labs.alta3.com/courses/5g/pcaps/5greg.pcap
  692  sudo termshark -r 5greg.pcap
  693  sudo termshark -r 5greg.pcap  -d=tcp.port==8000,http2
  694  sudo termshark -r 5greg.pcap  -d=tcp.port==8000,http2 -Y="((((http2) && !(http2.type == 8)) && !(http2.type == 7)) && !(http2.type == 4)) && !(http2.type == 3)"
  695  python3 -m pip install pyshark
  696  sudo termshark -r 5greg.pcap  -d=tcp.port==8000,http2 -Y="((((http2) && !(http2.type == 8)) && !(http2.type == 7)) && !(http2.type == 4)) && !(http2.type == 3)"
  697  cp /root/.cache/termshark/pcaps/lo--2022-11-02--17-25-13.pcap .
  698  sudo cp /root/.cache/termshark/pcaps/lo--2022-11-02--17-25-13.pcap .
  699  ls -lrt
  700  sudo termshark -r lo--2022-11-02--17-25-13.pcap  -d=tcp.port==8000,http2 -Y="((((http2) && !(http2.type == 8)) && !(http2.type == 7)) && !(http2.type == 4)) && !(http2.type == 3)"
  701  sudo termshark -i lo
  702  sudo rm -r /root/.cache/termshark/pcaps/
  703  sudo termshark -i lo
  704  dc  /root/.cache/termshark/pcaps/
  705  cd /root/.cache/termshark/pcaps/
  706  sudo cd /root/.cache/termshark/pcaps/
  707  cp /root/.cache/termshark/pcaps/lo--2022-11-02--17-25-13.pcap .
  708  sudo cp /root/.cache/termshark/pcaps/lo--2022-11-02--17-25-13.pcap .
  709  sudo termshark -i lo
  710  ping 8.8.8.8
  711  vim pingit.py
  712  python3 pingit.py 
  713  git status
  714  git add .
  715  git commit -m "icmp checks"
  716  git push origin main
  717  vi pingc01.py
  718  python3 pingc01.py 
  719  python3 pingc01.py -i 8.8.8.8
  720  vi env_vars.py
  721  python env_vars.py 
  722  python3 env_vars.py 
  723  IP_TO_PING="www.google.com"
  724  set
  725  set | grep IP_TO
  726  vi pingc02.py
  727  python3 pingc02.py 
  728  set | grep IP_TO
  729  vi pingc02.py
  730  python3 pingc02.py 
  731  python env_vars.py 
  732  python3 env_vars.py 
  733  vi env_vars.py 
  734  python3 env_vars.py 
  735  ls -lrt
  736  vi env_vars.py 
  737  python3 env_vars.py 
  738  python3 pingc02.py 
  739  vi pingc02.py 
  740  python3 pingc02.py 
  741  vi pingc02.py 
  742  python3 pingc02.py 
  743  wq
  744  vi pingc02.py 
  745  python3 pingc02.py 
  746  vi pingc02.py 
  747  python3 pingc02.py 
  748  vi pingc02.py 
  749  python3 pingc02.py 
  750  mkdir email
  751  cd email
  752  vi email01.py
  753  python3 -m smtpd -c DebuggingServer -n localhost:1025 &
  754  ps
  755  python3 email01.py 
  756  vi assigned_spaces.txt
  757  vi email02.py
  758  python3 email02.py
  759  git add ,
  760  git add .
  761  git commit -m "automating email"
  762  git push origin main
  763  vi email03.py
  764  python3 email03.py 
  765  vi email03.py
  766  rm email03.py 
  767  ls -lrt
  768  cd ..
  769  mkdir bsoup
  770  ls -lrt
  771  python -m pip install BeautifulSoup4
  772  python3 -m pip install BeautifulSoup4
  773  python3 -m pip install --upgrade requests
  774  vim bsoup01.py
  775  cd ..
  776  mkdir netfacd
  777  cd netfacd/
  778  python3 -m pip install netifaces
  779  vi interface_reader.py
  780  python3 interface_reader.py 
  781  vi interface_reader.py
  782  python3 interface_reader.py 
  783  vi interface_reader.py
  784  python3 interface_reader.py 
  785  vi interface_reader.py
  786  python3 interface_reader.py 
  787  vi interface_reader.py
  788  python3 interface_reader.py 
  789  vi interface_reader.py
  790  python3 interface_reader.py 
  791  vi interface_reader.py
  792  python3 interface_reader.py 
  793  git status
  794  pwd
  795  mv netfacd mycode
  796  mv -r netfacd mycode
  797  cd ..
  798  mv -r netfacd mycode
  799  mv netfacd mycode
  800  ls -lrt
  801  cd mycode
  802  git status
  803  git add .
  804  git commit -m "Python and physical interfaces"
  805  git push origin main
  806  ls -lrt
  807  ps
  808  kill 17461
  809  cd email
  810  ls -lrt
  811  vi email01.py 
  812  cd ..
  813  ls -lrt
  814  cd netfacd
  815  ls -lrt
  816  vi interface_reader.py 
  817  git status
  818  git add .
  819  git commit -m "more information about network interfaces"
  820  git push origin main
  821  vi interface_reader.py 
  822  python3 interface_reader.py 
  823  cd ../bsoup/
  824  ls -lrt
  825  vi bsoup01.py
  826  ls
  827  history
  828  ls -lrt
  829  cd ..
  830  ls -lrt
  831  cd netfacd/
  832  ls -lrt
  833  vi interface_reader.py 
  834  python3 interface_reader.py 
  835  q
  836  vi interface_reader.py 
  837  q
  838  python3 interface_reader.py 
  839  q
  840  vi interface_reader.py 
  841  ls
  842  cd..
  843  cd /home/student/
  844  cd mycode/
  845  ls
  846  ls -lrt
  847  cd bsoup/
  848  python3 bsoup01.py
  849  ls
  850  vim montypython.html
  851  ls
  852  cat montypython.html 
  853  vim bsoup02.py
  854  ls
  855  python3 bsoup02.py
  856  vim bsoup03.py
  857  ls -lrt
  858  python3 bsoup03.py
  859  vim bsoup04.py
  860  ls -lrt
  861  cd ~/mycode/
  862  git add *
  863  git commit -m "Using beautiful soup"
  864  git push origin HEAD
  865  xecc
  866  git push origin HEAD
  867  ls -lrt
  868  vi telnetproof01.py
  869  python3 telnetproof01.py 
  870  vi telnetncc1701.py
  871  python3 telnetncc1701.py 
  872  git add ,
  873  git add .
  874  git commit -m "learning about telnet"
  875  git push origin main
  876  cd mycode/python3 ~/mycode/telnetncc1701.py
  877  ls
  878  ls -lrt
  879  python3 ~/mycode/telnetncc1701.py
  880  wget https://github.com/mozilla/geckodriver/releases/download/v0.31.0/geckodriver-v0.31.0-linux64.tar.gz
  881  tar -xvzf geckodriver*
  882  chmod +x geckodriver
  883  mv geckodriver /usr/bin/
  884  TELNET mtrek.com 1701
  885  ls -lrt
  886  vi telnetncc1701.py 
  887  mkdir -p ~/mycode/passwd/
  888  cd ~/mycode/passwd/
  889  xecc
  890  vim ~/mycode/passwd/firstpasswd.py
  891  ls
  892  python3 ~/mycode/passwd/firstpasswd.py
  893  cd
  894  wget https://static.alta3.com/projects/ansible/deploy/pexpress-setup.sh
  895  wget https://static.alta3.com/projects/ansible/deploy/max-teardown.sh
  896  ps
  897  bash max-teardown.sh
  898  vi max-teardown.sh 
  899  bash pexpress-setup.sh
  900  ssh bender@10.10.2.3
  901  python3 -m pip install paramiko
  902  cd mycode/passwd/
  903  ls -lrt
  904  vi firstpasswd.py 
  905  vi secondpasswd.py
  906  python3 secondpasswd.py 
  907  ls -lrt
  908  vi secondpasswd.py 
  909  ssh bender@10.10.2.3
  910  python3 secondpasswd.py 
  911  vi secondpasswd.py 
  912  ssh bender@10.10.2.3
  913  cd ..
  914  ls -lrt
  915  cd mycode/passwd/
  916  ls -lrt
  917  python3 firstpasswd.py 
  918  cd
  919  ls -lrt
  920  sh max-teardown.sh 
  921  ps
  922  cd && wget https://labs.alta3.com/projects/napya/deploy/napyasetup.sh -qO setup.sh && bash setup.sh
  923  cd mycode/
  924  mkdir paramikosshrsa
  925  cd paramikosshrsa/
  926  ls -lrt
  927  vi learntossh.py
  928  python3 learntossh.py 
  929  cd /home/student/ssh
  930  ls -lrt
  931  cd /home/student/.ssh
  932  ls -lrt
  933  chmod 755 id_rsa
  934  ls -lrt
  935  cd
  936  cd mycode/paramikosshrsa/
  937  python3 learntossh.py 
  938  ps
  939  cd
  940  ls -lrt
  941  bash pexpress-setup.sh 
  942  ps
  943  ps -ef | grep docker
  944  cd mycode
  945  ls -lrt
  946  cd paramikosshrsa/
  947  ls -lrt
  948  python3 learntossh.py 
  949  vi learntossh.py 
  950  git status
  951  ls -lrt
  952  vi learntossh.py 
  953  python3 learntossh.py 
  954  history | grep bender
  955  ssh bender@10.10.2.3
  956  ls -lrt
  957  python3 learntossh.py 
  958  ls
  959  vim learntossh.py 
  960  history
  961  cd
  962  bash ~/max-teardown.sh
  963  cd && wget https://labs.alta3.com/projects/napya/deploy/napyasetup.sh -qO setup.sh && bash setup.sh
  964  cd mycode/paramikosshrsa/
  965  ls -lrt
  966  python3 learntossh.py 
  967  # there ya go! simple fix
  968  ls -lrt
  969  vi moressh.py
  970  python3 moressh.py 
  971  ps -ef | grep bender
  972  history | grep bender
  973  ssh bender@10.10.2.3
  974  cd /home/student/.ssh/id_rsa
  975  cd /home/student/.ssh
  976  chmod 600 id_rsa
  977  ls -lrt
  978  cd
  979  cd mycode/paramikosshrsa/
  980  ls -lrt
  981  python3 moressh.py 
  982  git status
  983  git add .
  984  git commit -m "SSH and paramiko"
  985  git push origin main
  986  history
  987  clear
  988  ls -lrt
  989  vi moressh.py 
  990  python3 moressh.py 
  991  vi moressh.py 
  992  python3 moressh.py 
  993  ls -lrt
  994  vi results.log 
  995  python3 moressh.py 
  996  vi moressh.py 
  997  python3 moressh.py 
  998  vi results.log 
  999  git status
 1000  cd ..
 1001  git status
 1002  git add .
 1003  git commit -m "sync"
 1004  git push origin main
 1005  ls -lrt
 1006  chmod +x geckodriver
 1007  ls -lrt
 1008  cp geckodriver /usr/bin/
 1009  sudo cp geckodriver /usr/bin/
 1010  python3 -m pip install selenium
 1011  mkdir -p ~/filestocopy/ ~/mycode/paramikosftp
 1012  ls -lrt
 1013  cd paramikost
 1014  cd paramikosftp/
 1015  ls -lrt
 1016  cd 
 1017  ls -lrt
 1018  cd filestocopy/
 1019  ls -lrt
 1020  touch myfile.txt myfile02.txt myfile03.txt
 1021  ls -lrt
 1022  cd ..
 1023  cd mycode/paramikosftp/
 1024  ls -lrt
 1025  vi sftpmover.py
 1026  ls -lrt
 1027  python3 sftpmover.py 
 1028  ssh bender@10.10.2.3
 1029  ls -lrt
 1030  vi sftpmover.py 
 1031  python3 sftpmover.py 
 1032  vi sftpmover_getpass.py
 1033  touch file_to_move.txt
 1034  python3 sftpmover_getpass.py 
 1035  history | grep bender
 1036  ssh bender@10.10.2.3
 1037  git add .
 1038  git commit -m "sftp with username and password"
 1039  git push origin main
 1040  vi sftpmover_getpass.py
 1041  python3 sftpmover_getpass.py 
 1042  ssh bender@10.10.2.3
 1043  git status
 1044  git add .
 1045  git commit -m "modified destination file name"
 1046  git push origin main
 1047  cd ..
 1048  python3 -m pip install --user netmiko
 1049  vim nxos_ver.py
 1050  python3 nxos_ver.py 
 1051  git add .
 1052  git commit -m "SSH and netmiko"
 1053  git push origin main
 1054  ssh admin@sandbox-nxos-1.cisco.com
 1055  python3 -m pip install -U pip
 1056  cd
 1057  python3 -m pip install -U pip
 1058  mkdir /home/student/mycode/usopen
 1059  ls
 1060  cd /home/student/mycode/usopen
 1061  vim host_list.csv
 1062  cls
 1063  ls
 1064  ca host_list.csv 
 1065  cat host_list.csv 
 1066  python3 -m pip install pyexcel pyexcel-xls netmiko
 1067  wget https://static.alta3.com/files/napya/usopen.py
 1068  cat usopen.py 
 1069  vi usopen.py 
 1070  python3 usopen.py
 1071  vim /home/student/mycode/usopen/bootstrapper.py
 1072  ls -lrt
 1073  chmod u+x bootstrapper.py
 1074  vim usopen.py
 1075  usopen.py
 1076  sl
 1077  ls
 1078  usopen.py
 1079  vim usopen.py
 1080  python3 usopen.py 
 1081  wget https://static.alta3.com/images/python/sw1-clean.conf -O sw-1-clean.conf
 1082  python3 usopen.py 
 1083  ls -lrt
 1084  vi usopen.py 
 1085  python3 
 1086  python3 usopen.py 
 1087  vi usopen.py 
 1088  wget https://static.alta3.com/images/python/sw2-clean.conf -O sw-2-clean.conf
 1089  vim netmiko_fanout.py
 1090  ls
 1091  python3 netmiko_fanout.py
 1092  cd ~/mycode/
 1093  git add *
 1094  git commit -m "Learning about netmiko"
 1095  git push origin HEAD
 1096  python3 netmiko_fanout.py
 1097  ls
 1098  ls -lrt
 1099  cd usopen/
 1100  python3 usopen.py 
 1101  python3 netmiko_fanout.py 
 1102  ls -lrt
 1103  vim netmiko_fanout.py
 1104  python3 netmiko_fanout.py
 1105  ls -lrt
 1106  python3 usopen.py 
 1107  vi usopen.py 
 1108  python3 usopen.py 
 1109  cd ..
 1110  mkdir sqldb
 1111  ls -lrt
 1112  cd sqldb/
 1113  ls -lrt
 1114  cd usopen
 1115  cd ..
 1116  cd usopen
 1117  ls -lrt
 1118  vi usopen.py 
 1119  cd..
 1120  cd ../sqldb/
 1121  vim ~/mycode/sqldb/database01.py
 1122  python3 ~/mycode/sqldb/database01.py
 1123  vim ~/mycode/sqldb/database02.py
 1124  python3 ~/mycode/sqldb/database02.py
 1125  vim ~/mycode/sqldb/database02v2.py
 1126  python3 ~/mycode/sqldb/database02v2.py
 1127  ls -lrt
 1128  vim ~/mycode/sqldb/database03.py
 1129  python3 ~/mycode/sqldb/database03.py
 1130  vim ~/mycode/sqldb/database04.py
 1131  python3 ~/mycode/sqldb/database04.py
 1132  vim ~/mycode/sqldb/database05.py
 1133  python3 ~/mycode/sqldb/database05.py
 1134  vim ~/mycode/sqldb/database06.py
 1135  ls
 1136  ls -lrt
 1137  python3 ~/mycode/sqldb/database06.py
 1138  cd ~/mycode/
 1139  git add *
 1140  git commit -m "sql operations and python3"
 1141  git push origin main
 1142  python3 -m pip install napalm
 1143  vim ~/mycode/myconfig.py
 1144  python3 ~/mycode/myconfig.py
 1145  vim ~/mycode/config_2_json.py
 1146  python3 ~/mycode/config_2_json.py
 1147  vim ~/mycode/getjson.py
 1148  python3 ~/mycode/getjson.py sw-1 > ~/mycode/sw1_current_config
 1149  python3 ~/mycode/getjson.py sw-2 > ~/mycode/sw2_current_config
 1150  python3 ~/mycode/myconfig.py
 1151  ls -lrt
 1152  git log -5
 1153  history
 1154  python3 ~/mycode/myconfig.py
 1155  history
 1156  python3 ~/mycode/getrun.py sw-1
 1157  vi getrun.py
 1158  ls -lrt
 1159  vi sw1_current_config 
 1160  python3 ~/mycode/getjson.py sw-1 > ~/mycode/sw1_current_config
 1161  python3 ~/mycode/getjson.py sw-1 > ~/mycode/sw1_current_config > error.log
 1162  ls -lrt
 1163  rm error.log 
 1164  ls -lrt
 1165  python3 ~/mycode/getjson.py sw-1 > error.log
 1166  git status
 1167  git reset --hard
 1168  git status
 1169  git clean -fd
 1170  ls -lrt
 1171  git status
 1172  python3 -m pip install napalm
 1173  vi myconfig.py
 1174  python3 myconfig.py 
 1175  wget https://static.alta3.com/images/python/sw1-clean.conf -O sw-1-clean.conf && wget https://static.alta3.com/images/python/sw2-clean.conf -O sw-2-clean.conf
 1176  python3 myconfig.py 
 1177  ls -lrt
 1178  cd usopen
 1179  ls -lrt
 1180  python3 usopen.py 
 1181  ls -lrt
 1182  python3 usopen.py 
 1183  wget https://static.alta3.com/images/python/sw1-clean.conf -O sw-1-clean.conf
 1184  python3 usopen.py 
 1185  wget https://static.alta3.com/images/python/sw2-clean.conf -O sw-2-clean.conf
 1186  python3 usopen.py 
 1187  python3 ~/mycode/getjson.py sw-1 > ~/mycode/sw1_current_config > error.log
 1188  ls -lrt
 1189  vi host_list.csv 
 1190  cd ..
 1191  ls -lrt
 1192  python3 myconfig.py 
 1193  history
 1194  ls
 1195  cd usopen/
 1196  ls
 1197  python3 usopen.py 
 1198  cd ..
 1199  ls -lrt
 1200  python3 myconfig.py 
 1201  vim ~/mycode/myconfig.py
 1202  python3 -m pip install napalm
 1203  clear
 1204  python3 myconfig.py 
 1205  ps -ef | grep sw-1
 1206  ls -lrt
 1207  vi check_err.py
 1208  mv check_err.py usopen/
 1209  cd usopen/n
 1210  cd usopen
 1211  ls -lrt
 1212  python3 check_err.py 
 1213  cd 
 1214  ls -lrt
 1215  git log -3
 1216  history
 1217  clear
 1218  ls -lrt
 1219  python3 -m pip install flask
 1220  mkdir flaskapi
 1221  ls -lrt
 1222  cd flaskapi/
 1223  vi myflask01.py
 1224  python myflask01.py 
 1225  python3 myflask01.py 
 1226  python3 myflask01.py &
 1227  curl http://127.0.0.1:2224
 1228  ps -ef | grep flask
 1229  kill 32074
 1230  vi myflask01.py 
 1231  python3 myflask01.py 
 1232  vi myflask02.py
 1233  python3 myflask02.py &
 1234  vi myflask02.py 
 1235  ls -lrt
 1236  curl https://0.0.0.0:2224/hello/Richard
 1237  curl https://0.0.0.0:2224/hello/Alex
 1238  ps
 1239  kill 32169
 1240  python3 myflask01.py 
 1241  python3 myflask01.py &
 1242  curl http://10.15.10.2:2224
 1243  ps 
 1244  kill 32266
 1245  python3 myflask02.py 
 1246  python3 myflask02.py  &
 1247  curl http://10.15.10.2:2224/hello/Alex
 1248  ps
 1249  kill 32302
 1250  vi myflask03.py
 1251  sudo apt install curl
 1252  python3 myflask03.py 
 1253  python3 myflask03.py &
 1254  curl http://0.0.0.0:2224/user/admin -L
 1255  curl http://0.0.0.0:2224/user/Wolverine -L
 1256  mkdir templates
 1257  cd templates
 1258  vi postmaker.html
 1259  cd ..
 1260  vi myflask04.py
 1261  python3 myflask04.py 
 1262  ps
 1263  kill 32414
 1264  python myflask04.py 
 1265  python3 myflask04.py 
 1266  python3 myflask04.py &
 1267  curl http://0.0.0.0:2224/login?nm=Wolverine -L
 1268  curl http://0.0.0.0:2224/login -L -d nm=Conan%20the%20Librarian
 1269  git status
 1270  cd ..
 1271  git status
 1272  ls -lrt
 1273  mv flaskapi/ mycode/
 1274  ls -lrt
 1275  cd filestocopy/
 1276  ls -lrt
 1277  cd ..
 1278  cd mycode/
 1279  git status
 1280  git add .
 1281  git  commit -m "My first Flask aps"
 1282  git push origin main
 1283  ps
 1284  kill3 32523
 1285  kill 32523
 1286  sudo apt install virtualenv -y
 1287  python3 -m venv djintro
 1288  ps
 1289  source ./djintro/bin/activate
 1290  pip install Django
 1291  django-admin --version
 1292  django-admin startproject fifthelement
 1293  ls -lrt
 1294  sudo apt install tree -y
 1295  tree fifthelement
 1296  cd fifthelement/
 1297  ls -lrt
 1298  AUX1=aux1-`hostname --domain`.live.alta3.com
 1299  sed -i "s/ALLOWED_HOSTS = \[\]/ALLOWED_HOSTS = \['$AUX1', '127.0.0.1'\]/g" fifthelement/settings.py
 1300  echo "CSRF_TRUSTED_ORIGINS = ['https://$AUX1', 'http://127.0.0.1']" >> fifthelement/settings.py
 1301  ls -lrt
 1302  cd fifthelement/
 1303  ls -lrt
 1304  vi settings.py 
 1305  cd ..
 1306  python3 manage.py runserver
 1307  python3 manage.py runserver &
 1308  ps
 1309  kill 33092 33097
 1310  python3 manage.py runserver &
 1311  ps
 1312  curl http://127.0.0.1:8000/
 1313  ps
 1314  kill 33132 33137
 1315  ls -lrt
 1316  vi altaapp01.py
 1317  django-admin runserver --pythonpath=. --settings=altaapp01
 1318  vi altaapp01.py 
 1319  history
 1320  cd ..
 1321  ls -lrt
 1322  history > history.log
 1323  ls -lrt
 1324  vi history.log 
 1325  cd fifthelement/
 1326  ls -lrt
 1327  vi altaapp02.py
 1328  django-admin runserver --pythonpath=. --settings=altaapp02
 1329  django-admin runserver --pythonpath=. --settings=altaapp02 &
 1330  curl http://127.0.0.1:8000/
 1331  ps
 1332  kill 33627 33632
 1333  vi altaapp03.py
 1334  django-admin runserver --pythonpath=. --settings=altaapp03
 1335  django-admin runserver --pythonpath=. --settings=altaapp03 &
 1336  curl http://127.0.0.1:8000/?color=green
 1337  ps
 1338  kill 33683 33688
 1339  vi altaapp04.py
 1340  python3 altaapp04.py 
 1341  ls -lrt
 1342  ps
 1343  django-admin runserver --pythonpath=. --settings=altaapp04 &
 1344  curl http://127.0.0.1:8000/?color=green
 1345  curl http://127.0.0.1:8000/about/
 1346  ps
 1347  kill 33737
 1348  ps
 1349  deactivate
 1350  ls -lrt
 1351  cd ..
 1352  history > history.log
 1353  git status
 1354  git add .
 1355  git commit -m "intro to Django"
 1356  git push origin main
 1357  ls -lrt
 1358  docker --help
 1359  mkdir dune
 1360  cd dune
 1361  vi dune.py
 1362  python3 dune.py 
 1363  python3 dune.py &
 1364  ps
 1365  kill 33927
 1366  ps
 1367  kill -9 33932
 1368  ps
 1369  kill -9 33927
 1370  ls -lrt
 1371  ps
 1372  python3 dune.py 
 1373  ps
 1374  python3 dune.py &
 1375  ps
 1376  curl http://localhost:5000/
 1377  kill 34010
 1378  ps
 1379  kill 34015
 1380  ps
 1381  kill -9 34010 34015
 1382  python3 -m pip install flask
 1383  python3 dune.py &
 1384  curl http://localhost:5000/
 1385  vi dune.py 
 1386  ls -lrt
 1387  vi dune.py 
 1388  ps
 1389  curl http://localhost:5000/
 1390  exit
 1391  ls -lrt
 1392  cd mycode
 1393  ls -rlt
 1394  cd dune
 1395  ls -lrt
 1396  python3 dune.py 
 1397  ps
 1398  python3 dune.py &
 1399  curl http://localhost:5000/
 1400  ps
 1401  kill -9 34238 34243
 1402  ps
 1403  ps -ef | grep python3
 1404  cd ..
 1405  ls -lrt
 1406  cd flaskapi/
 1407  ls -lrt
 1408  python3 myflask04.py &
 1409  history | grep curl
 1410  curl http://0.0.0.0:2224/login -L -d nm=Conan%20the%20Librarian
 1411  clear
 1412  ps
 1413  kill 34324
 1414  cd ..
 1415  ls -lrt
 1416  cd dune
 1417  ls -lrt
 1418  vi dune.py 
 1419  cd ../flaskapi
 1420  ls -rt
 1421  vi myflask04.py 
 1422  cd ..
 1423  ls -lrt
 1424  cd unde
 1425  cd dune 
 1426  ls -lrt
 1427  vi dune.py 
 1428  cd ../flaskapi/
 1429  vi myflask04.py 
 1430  cd ..
 1431  cd dune
 1432  ls -lrt
 1433  ps -ef | grep 500
 1434  ps -ef | grep 5000
 1435  clear
 1436  python3 dune.py 
 1437  ps
 1438  python3 dune.py &
 1439  curl http://localhost:5000/
 1440  history
 1441  ps
 1442  ls
 1443  vim dune.py 
 1444  # did you create the docker container yet? 
 1445  # if not that is why you get no response. The first part of the
 1446  # lab has us run a simple python Flask script. It still needs
 1447  # to run to show any get requests received
 1448  # Where are the instructions to create the docker? Is it at the top of this lab or another one?
 1449  # we create the container in this lab. Docker commands start at 
 1450  # step 14
 1451  # wait, but this is before that happens right? It should still work like a normal Flask application ?
 1452  # correct. So you need to keep the flask script running, split
 1453  # your TMUX and issue commands from a second pane
 1454  # I mean if you check steps 8-10, it should return a response to the curl without the Docker image ?
 1455  # right. Let me try something
 1456  python3 dune.py 
 1457  ps
 1458  kill -9 34530 34545
 1459  kill -9 34540 34545
 1460  # I just killed the running processes
 1461  ps
 1462  # ok so you had multiple processes using that same port. That's why it was hanging#
 1463  # no i mean when I start the python3 dune.py it creates two processes on its own
 1464  # for example
 1465  # we have no python3 processes right now
 1466  ps
 1467  # now I will run the dune.py in the background
 1468  python3 dune.py &
 1469  ps
 1470  # and we see that two processes are created from this one command?
 1471  # yes but it also says the dune.py was stopped. 
 1472  # we don't want this running in the background anyway. It takes up a port number and then is hard to see they output.
 1473  # ok I see, what is the command to split screen again? CTRL+B and then
 1474  # double quotes "
 1475  kill -9 34707 34712
 1476  # how do i toggle between screens
 1477  # ctrl +b and then arrow keys
 1478  curl http://localhost:5000/
 1479  #thanks Jason, 
 1480  # I am a bit unsure why this works for split screen but not backgrround process, I've been doing something similar for the past labs and it was working without problem 
 1481  ps -ef | grep python
 1482  ls -lrt
 1483  curl http://localhost:5000/atreides
 1484  ps -ef | grep dune
 1485  kill 34818
 1486  ps -ef | grep dune
 1487  nohup python3 dune.py > dune.log 2>&1 &
 1488  ls -lrt
 1489  ps -ef | grep dune
 1490  curl http://localhost:5000/atreides
 1491  curl http://localhost:5000/
 1492  ls -lrt
 1493  vi dune.log
 1494  clear
 1495  ls -lrt
 1496  curl http://localhost:5000/atreides
 1497  vi dune.log
 1498  history | grep nohup
 1499  ps -ef | grep python
 1500  kill 34895
 1501  ps -ef | grep python
 1502  vi Dockerfile
 1503  vi requirements.txt
 1504  sudo docker build -t dune-app -f Dockerfile .
 1505  ls -lrt
 1506  sudo docker run --name scifi -d -p 5000:5000 dune-app
 1507  ls -lrt
 1508  ps -ef | grep dunen
 1509  ps -ef | grep dune
 1510  curl http://localhost:5000/
 1511  curl http://localhost:5000/atreides
 1512  docker ps
 1513  sudo docker run --name sandworm -d -p 34727:5000 dune-app
 1514  curl http://localhost:5000/
 1515  curl http://localhost:34727/
 1516  sudo docker stop scifi
 1517  sudo docker stop farnsworth zoidberg fry bender
 1518  sudo docker stop sandworm
 1519  sudo docker run -d dune-app
 1520  docker ps
 1521  sudo docker stop $(sudo docker ps -aq)
 1522  docker ps
 1523  cd ..
 1524  history > history2.log
